%YAML 1.1
%TAG !u! tag:unity3d.com,2011:
--- !u!114 &11400000
MonoBehaviour:
  m_ObjectHideFlags: 0
  m_CorrespondingSourceObject: {fileID: 0}
  m_PrefabInstance: {fileID: 0}
  m_PrefabAsset: {fileID: 0}
  m_GameObject: {fileID: 0}
  m_Enabled: 1
  m_EditorHideFlags: 0
  m_Script: {fileID: 11500000, guid: 3d4afb3ccbc60d84ea9510f2fd684f9c, type: 3}
  m_Name: Bow
  m_EditorClassIdentifier: 
  name: Generic Bow
  maxStackSize: 1
  weight: 4
  worldObject: {fileID: 341660241948500624, guid: aa3808a520f0ea449b07ae1a618f35a6, type: 3}
  worldVisuals: {fileID: 0}
  UIObject: {fileID: 1176224662383985760, guid: 128279285a7d6334a9a9bc29d6e71c05, type: 3}
  UIIcon: {fileID: 0}
  usablity: 1
  equipSlot: 6
  type: 1
  statToModify: 0
  modifyValue: 0
  damage: 10
  attackSpeed: 1.5
  twoHanded: 1
  weaponType: 2
  damageType: 3
  reloadSpeed: 0.5
