%YAML 1.1
%TAG !u! tag:unity3d.com,2011:
--- !u!114 &11400000
MonoBehaviour:
  m_ObjectHideFlags: 0
  m_CorrespondingSourceObject: {fileID: 0}
  m_PrefabInstance: {fileID: 0}
  m_PrefabAsset: {fileID: 0}
  m_GameObject: {fileID: 0}
  m_Enabled: 1
  m_EditorHideFlags: 0
  m_Script: {fileID: 11500000, guid: ae9f86dc7efa45e40ac3357b43174c84, type: 3}
  m_Name: Axe
  m_EditorClassIdentifier: 
  name: Generic Axe
  maxStackSize: 1
  weight: 5
  worldObject: {fileID: 341660241948500624, guid: aa3808a520f0ea449b07ae1a618f35a6, type: 3}
  worldVisuals: {fileID: 0}
  UIObject: {fileID: 1176224662383985760, guid: 128279285a7d6334a9a9bc29d6e71c05, type: 3}
  UIIcon: {fileID: 21300000, guid: 0731c8ea40f0f894e8d4bdc7457c677c, type: 3}
  usablity: 1
  equipSlot: 6
  type: 1
  statsToModify:
  - stat: 9
    modifyValue: 3
  damage: 10
  attackSpeed: 2
  twoHanded: 0
  weaponType: 1
  damageType: 1
