%YAML 1.1
%TAG !u! tag:unity3d.com,2011:
--- !u!114 &11400000
MonoBehaviour:
  m_ObjectHideFlags: 0
  m_CorrespondingSourceObject: {fileID: 0}
  m_PrefabInstance: {fileID: 0}
  m_PrefabAsset: {fileID: 0}
  m_GameObject: {fileID: 0}
  m_Enabled: 1
  m_EditorHideFlags: 0
  m_Script: {fileID: 11500000, guid: b50347b2d2e874f4b949419097456425, type: 3}
  m_Name: Boots
  m_EditorClassIdentifier: 
  name: Generic Boots
  maxStackSize: 1
  weight: 1
  worldObject: {fileID: 341660241948500624, guid: aa3808a520f0ea449b07ae1a618f35a6, type: 3}
  worldVisuals: {fileID: 0}
  UIObject: {fileID: 1176224662383985760, guid: 128279285a7d6334a9a9bc29d6e71c05, type: 3}
  UIIcon: {fileID: 21300000, guid: 99ec0c91ba869f544ae1f0e23104bcb9, type: 3}
  usablity: 1
  equipSlot: 5
  type: 2
  statToModify: 1
  modifyValue: 5
